Header link

link for requisition----

<asp:TemplateField HeaderText="Requesition ID" ItemStyle-HorizontalAlign="left">
                        <ItemTemplate>
                              <asp:HyperLink ID="hLinkDetails" runat="server" NavigateUrl='<%#Eval("SREQ_ID", "~/FAM/FAM_WebFiles/UpdateSurrenderRequisitions.aspx?Req_id={0}")%>'
                                 Text='<%# Eval("SREQ_ID")%> '></asp:HyperLink>
                            <asp:Label ID="lblSREQ_ID" runat="server" Text='<%#Eval("SREQ_ID") %>' Visible="false"></asp:Label>
                        </ItemTemplate>
                    </asp:TemplateField>
